[
  {
    "GroupName": "l4 h4",
    "GroupHeader": "ntv9h410tepu",
    "GroupFooter": "f01121h6f$i1iw%c6lnio2m$axlctnlmp$%8ychvxnivnh%i1",
    "Id": null
  },
  {
    "GroupName": "28bmfs",
    "GroupHeader": "21epem71 mkxfs3d70au6z7xdq zsld7w",
    "GroupFooter": "@pdfsap8s 40ve%4j0e#vd9vm3riizjrb0wn%1iaf$h@8s96z2b",
    "Id": null
  }
]